<?xml version='1.0' encoding='utf-8'?>
<svg xmlns:xlink="http://www.w3.org/1999/xlink" class="pygal-chart" id="chart-7f6936dc-dfc8-4e9f-b41f-f427a2175ad3" viewBox="0 0 800 600" xmlns="http://www.w3.org/2000/svg"><!--Generated with pygal 2.4.0 (etree) ©Kozea 2012-2016 on 2017-08-25--><!--http://pygal.org--><!--http://github.com/Kozea/pygal--><defs><style type="text/css">#chart-7f6936dc-dfc8-4e9f-b41f-f427a2175ad3{-webkit-user-select:none;-webkit-font-smoothing:antialiased;font-family:Consolas,"Liberation Mono",Menlo,Courier,monospace}#chart-7f6936dc-dfc8-4e9f-b41f-f427a2175ad3 .title{font-family:Consolas,"Liberation Mono",Menlo,Courier,monospace;font-size:16px}#chart-7f6936dc-dfc8-4e9f-b41f-f427a2175ad3 .legends .legend text{font-family:Consolas,"Liberation Mono",Menlo,Courier,monospace;font-size:14px}#chart-7f6936dc-dfc8-4e9f-b41f-f427a2175ad3 .axis text{font-family:Consolas,"Liberation Mono",Menlo,Courier,monospace;font-size:10px}#chart-7f6936dc-dfc8-4e9f-b41f-f427a2175ad3 .axis text.major{font-family:Consolas,"Liberation Mono",Menlo,Courier,monospace;font-size:10px}#chart-7f6936dc-dfc8-4e9f-b41f-f427a2175ad3 .text-overlay text.value{font-family:Consolas,"Liberation Mono",Menlo,Courier,monospace;font-size:16px}#chart-7f6936dc-dfc8-4e9f-b41f-f427a2175ad3 .text-overlay text.label{font-family:Consolas,"Liberation Mono",Menlo,Courier,monospace;font-size:10px}#chart-7f6936dc-dfc8-4e9f-b41f-f427a2175ad3 .tooltip{font-family:Consolas,"Liberation Mono",Menlo,Courier,monospace;font-size:14px}#chart-7f6936dc-dfc8-4e9f-b41f-f427a2175ad3 text.no_data{font-family:Consolas,"Liberation Mono",Menlo,Courier,monospace;font-size:64px}
#chart-7f6936dc-dfc8-4e9f-b41f-f427a2175ad3{background-color:rgba(249,249,249,1)}#chart-7f6936dc-dfc8-4e9f-b41f-f427a2175ad3 path,#chart-7f6936dc-dfc8-4e9f-b41f-f427a2175ad3 line,#chart-7f6936dc-dfc8-4e9f-b41f-f427a2175ad3 rect,#chart-7f6936dc-dfc8-4e9f-b41f-f427a2175ad3 circle{-webkit-transition:150ms;-moz-transition:150ms;transition:150ms}#chart-7f6936dc-dfc8-4e9f-b41f-f427a2175ad3 .graph &gt; .background{fill:rgba(249,249,249,1)}#chart-7f6936dc-dfc8-4e9f-b41f-f427a2175ad3 .plot &gt; .background{fill:rgba(255,255,255,1)}#chart-7f6936dc-dfc8-4e9f-b41f-f427a2175ad3 .graph{fill:rgba(0,0,0,.87)}#chart-7f6936dc-dfc8-4e9f-b41f-f427a2175ad3 text.no_data{fill:rgba(0,0,0,1)}#chart-7f6936dc-dfc8-4e9f-b41f-f427a2175ad3 .title{fill:rgba(0,0,0,1)}#chart-7f6936dc-dfc8-4e9f-b41f-f427a2175ad3 .legends .legend text{fill:rgba(0,0,0,.87)}#chart-7f6936dc-dfc8-4e9f-b41f-f427a2175ad3 .legends .legend:hover text{fill:rgba(0,0,0,1)}#chart-7f6936dc-dfc8-4e9f-b41f-f427a2175ad3 .axis .line{stroke:rgba(0,0,0,1)}#chart-7f6936dc-dfc8-4e9f-b41f-f427a2175ad3 .axis .guide.line{stroke:rgba(0,0,0,.54)}#chart-7f6936dc-dfc8-4e9f-b41f-f427a2175ad3 .axis .major.line{stroke:rgba(0,0,0,.87)}#chart-7f6936dc-dfc8-4e9f-b41f-f427a2175ad3 .axis text.major{fill:rgba(0,0,0,1)}#chart-7f6936dc-dfc8-4e9f-b41f-f427a2175ad3 .axis.y .guides:hover .guide.line,#chart-7f6936dc-dfc8-4e9f-b41f-f427a2175ad3 .line-graph .axis.x .guides:hover .guide.line,#chart-7f6936dc-dfc8-4e9f-b41f-f427a2175ad3 .stackedline-graph .axis.x .guides:hover .guide.line,#chart-7f6936dc-dfc8-4e9f-b41f-f427a2175ad3 .xy-graph .axis.x .guides:hover .guide.line{stroke:rgba(0,0,0,1)}#chart-7f6936dc-dfc8-4e9f-b41f-f427a2175ad3 .axis .guides:hover text{fill:rgba(0,0,0,1)}#chart-7f6936dc-dfc8-4e9f-b41f-f427a2175ad3 .reactive{fill-opacity:.7;stroke-opacity:.8}#chart-7f6936dc-dfc8-4e9f-b41f-f427a2175ad3 .ci{stroke:rgba(0,0,0,.87)}#chart-7f6936dc-dfc8-4e9f-b41f-f427a2175ad3 .reactive.active,#chart-7f6936dc-dfc8-4e9f-b41f-f427a2175ad3 .active .reactive{fill-opacity:.8;stroke-opacity:.9;stroke-width:4}#chart-7f6936dc-dfc8-4e9f-b41f-f427a2175ad3 .ci .reactive.active{stroke-width:1.5}#chart-7f6936dc-dfc8-4e9f-b41f-f427a2175ad3 .series text{fill:rgba(0,0,0,1)}#chart-7f6936dc-dfc8-4e9f-b41f-f427a2175ad3 .tooltip rect{fill:rgba(255,255,255,1);stroke:rgba(0,0,0,1);-webkit-transition:opacity 150ms;-moz-transition:opacity 150ms;transition:opacity 150ms}#chart-7f6936dc-dfc8-4e9f-b41f-f427a2175ad3 .tooltip .label{fill:rgba(0,0,0,.87)}#chart-7f6936dc-dfc8-4e9f-b41f-f427a2175ad3 .tooltip .label{fill:rgba(0,0,0,.87)}#chart-7f6936dc-dfc8-4e9f-b41f-f427a2175ad3 .tooltip .legend{font-size:.8em;fill:rgba(0,0,0,.54)}#chart-7f6936dc-dfc8-4e9f-b41f-f427a2175ad3 .tooltip .x_label{font-size:.6em;fill:rgba(0,0,0,1)}#chart-7f6936dc-dfc8-4e9f-b41f-f427a2175ad3 .tooltip .xlink{font-size:.5em;text-decoration:underline}#chart-7f6936dc-dfc8-4e9f-b41f-f427a2175ad3 .tooltip .value{font-size:1.5em}#chart-7f6936dc-dfc8-4e9f-b41f-f427a2175ad3 .bound{font-size:.5em}#chart-7f6936dc-dfc8-4e9f-b41f-f427a2175ad3 .max-value{font-size:.75em;fill:rgba(0,0,0,.54)}#chart-7f6936dc-dfc8-4e9f-b41f-f427a2175ad3 .map-element{fill:rgba(255,255,255,1);stroke:rgba(0,0,0,.54) !important}#chart-7f6936dc-dfc8-4e9f-b41f-f427a2175ad3 .map-element .reactive{fill-opacity:inherit;stroke-opacity:inherit}#chart-7f6936dc-dfc8-4e9f-b41f-f427a2175ad3 .color-0,#chart-7f6936dc-dfc8-4e9f-b41f-f427a2175ad3 .color-0 a:visited{stroke:#F44336;fill:#F44336}#chart-7f6936dc-dfc8-4e9f-b41f-f427a2175ad3 .color-1,#chart-7f6936dc-dfc8-4e9f-b41f-f427a2175ad3 .color-1 a:visited{stroke:#3F51B5;fill:#3F51B5}#chart-7f6936dc-dfc8-4e9f-b41f-f427a2175ad3 .color-2,#chart-7f6936dc-dfc8-4e9f-b41f-f427a2175ad3 .color-2 a:visited{stroke:#009688;fill:#009688}#chart-7f6936dc-dfc8-4e9f-b41f-f427a2175ad3 .color-3,#chart-7f6936dc-dfc8-4e9f-b41f-f427a2175ad3 .color-3 a:visited{stroke:#FFC107;fill:#FFC107}#chart-7f6936dc-dfc8-4e9f-b41f-f427a2175ad3 .color-4,#chart-7f6936dc-dfc8-4e9f-b41f-f427a2175ad3 .color-4 a:visited{stroke:#FF5722;fill:#FF5722}#chart-7f6936dc-dfc8-4e9f-b41f-f427a2175ad3 .color-5,#chart-7f6936dc-dfc8-4e9f-b41f-f427a2175ad3 .color-5 a:visited{stroke:#9C27B0;fill:#9C27B0}#chart-7f6936dc-dfc8-4e9f-b41f-f427a2175ad3 .color-6,#chart-7f6936dc-dfc8-4e9f-b41f-f427a2175ad3 .color-6 a:visited{stroke:#03A9F4;fill:#03A9F4}#chart-7f6936dc-dfc8-4e9f-b41f-f427a2175ad3 .text-overlay .color-0 text{fill:black}#chart-7f6936dc-dfc8-4e9f-b41f-f427a2175ad3 .text-overlay .color-1 text{fill:black}#chart-7f6936dc-dfc8-4e9f-b41f-f427a2175ad3 .text-overlay .color-2 text{fill:black}#chart-7f6936dc-dfc8-4e9f-b41f-f427a2175ad3 .text-overlay .color-3 text{fill:black}#chart-7f6936dc-dfc8-4e9f-b41f-f427a2175ad3 .text-overlay .color-4 text{fill:black}#chart-7f6936dc-dfc8-4e9f-b41f-f427a2175ad3 .text-overlay .color-5 text{fill:black}#chart-7f6936dc-dfc8-4e9f-b41f-f427a2175ad3 .text-overlay .color-6 text{fill:black}
#chart-7f6936dc-dfc8-4e9f-b41f-f427a2175ad3 text.no_data{text-anchor:middle}#chart-7f6936dc-dfc8-4e9f-b41f-f427a2175ad3 .guide.line{fill:none}#chart-7f6936dc-dfc8-4e9f-b41f-f427a2175ad3 .centered{text-anchor:middle}#chart-7f6936dc-dfc8-4e9f-b41f-f427a2175ad3 .title{text-anchor:middle}#chart-7f6936dc-dfc8-4e9f-b41f-f427a2175ad3 .legends .legend text{fill-opacity:1}#chart-7f6936dc-dfc8-4e9f-b41f-f427a2175ad3 .axis.x text{text-anchor:middle}#chart-7f6936dc-dfc8-4e9f-b41f-f427a2175ad3 .axis.x:not(.web) text[transform]{text-anchor:start}#chart-7f6936dc-dfc8-4e9f-b41f-f427a2175ad3 .axis.x:not(.web) text[transform].backwards{text-anchor:end}#chart-7f6936dc-dfc8-4e9f-b41f-f427a2175ad3 .axis.y text{text-anchor:end}#chart-7f6936dc-dfc8-4e9f-b41f-f427a2175ad3 .axis.y text[transform].backwards{text-anchor:start}#chart-7f6936dc-dfc8-4e9f-b41f-f427a2175ad3 .axis.y2 text{text-anchor:start}#chart-7f6936dc-dfc8-4e9f-b41f-f427a2175ad3 .axis.y2 text[transform].backwards{text-anchor:end}#chart-7f6936dc-dfc8-4e9f-b41f-f427a2175ad3 .axis .guide.line{stroke-dasharray:4,4}#chart-7f6936dc-dfc8-4e9f-b41f-f427a2175ad3 .axis .major.guide.line{stroke-dasharray:6,6}#chart-7f6936dc-dfc8-4e9f-b41f-f427a2175ad3 .horizontal .axis.y .guide.line,#chart-7f6936dc-dfc8-4e9f-b41f-f427a2175ad3 .horizontal .axis.y2 .guide.line,#chart-7f6936dc-dfc8-4e9f-b41f-f427a2175ad3 .vertical .axis.x .guide.line{opacity:0}#chart-7f6936dc-dfc8-4e9f-b41f-f427a2175ad3 .horizontal .axis.always_show .guide.line,#chart-7f6936dc-dfc8-4e9f-b41f-f427a2175ad3 .vertical .axis.always_show .guide.line{opacity:1 !important}#chart-7f6936dc-dfc8-4e9f-b41f-f427a2175ad3 .axis.y .guides:hover .guide.line,#chart-7f6936dc-dfc8-4e9f-b41f-f427a2175ad3 .axis.y2 .guides:hover .guide.line,#chart-7f6936dc-dfc8-4e9f-b41f-f427a2175ad3 .axis.x .guides:hover .guide.line{opacity:1}#chart-7f6936dc-dfc8-4e9f-b41f-f427a2175ad3 .axis .guides:hover text{opacity:1}#chart-7f6936dc-dfc8-4e9f-b41f-f427a2175ad3 .nofill{fill:none}#chart-7f6936dc-dfc8-4e9f-b41f-f427a2175ad3 .subtle-fill{fill-opacity:.2}#chart-7f6936dc-dfc8-4e9f-b41f-f427a2175ad3 .dot{stroke-width:1px;fill-opacity:1}#chart-7f6936dc-dfc8-4e9f-b41f-f427a2175ad3 .dot.active{stroke-width:5px}#chart-7f6936dc-dfc8-4e9f-b41f-f427a2175ad3 .dot.negative{fill:transparent}#chart-7f6936dc-dfc8-4e9f-b41f-f427a2175ad3 text,#chart-7f6936dc-dfc8-4e9f-b41f-f427a2175ad3 tspan{stroke:none !important}#chart-7f6936dc-dfc8-4e9f-b41f-f427a2175ad3 .series text.active{opacity:1}#chart-7f6936dc-dfc8-4e9f-b41f-f427a2175ad3 .tooltip rect{fill-opacity:.95;stroke-width:.5}#chart-7f6936dc-dfc8-4e9f-b41f-f427a2175ad3 .tooltip text{fill-opacity:1}#chart-7f6936dc-dfc8-4e9f-b41f-f427a2175ad3 .showable{visibility:hidden}#chart-7f6936dc-dfc8-4e9f-b41f-f427a2175ad3 .showable.shown{visibility:visible}#chart-7f6936dc-dfc8-4e9f-b41f-f427a2175ad3 .gauge-background{fill:rgba(229,229,229,1);stroke:none}#chart-7f6936dc-dfc8-4e9f-b41f-f427a2175ad3 .bg-lines{stroke:rgba(249,249,249,1);stroke-width:2px}</style><script type="text/javascript">window.pygal = window.pygal || {};window.pygal.config = window.pygal.config || {};window.pygal.config['7f6936dc-dfc8-4e9f-b41f-f427a2175ad3'] = {"allow_interruptions": false, "box_mode": "extremes", "classes": ["pygal-chart"], "css": ["file://style.css", "file://graph.css"], "defs": [], "disable_xml_declaration": false, "dots_size": 2.5, "dynamic_print_values": false, "explicit_size": false, "fill": false, "force_uri_protocol": "https", "formatter": null, "half_pie": false, "height": 600, "include_x_axis": false, "inner_radius": 0, "interpolate": null, "interpolation_parameters": {}, "interpolation_precision": 250, "inverse_y_axis": false, "js": ["//kozea.github.io/pygal.js/2.0.x/pygal-tooltips.min.js"], "legend_at_bottom": false, "legend_at_bottom_columns": null, "legend_box_size": 12, "logarithmic": false, "margin": 20, "margin_bottom": null, "margin_left": null, "margin_right": null, "margin_top": null, "max_scale": 16, "min_scale": 4, "missing_value_fill_truncation": "x", "no_data_text": "No data", "no_prefix": false, "order_min": null, "pretty_print": false, "print_labels": false, "print_values": false, "print_values_position": "center", "print_zeroes": true, "range": null, "rounded_bars": null, "secondary_range": null, "show_dots": true, "show_legend": true, "show_minor_x_labels": true, "show_minor_y_labels": true, "show_only_major_dots": false, "show_x_guides": false, "show_x_labels": true, "show_y_guides": true, "show_y_labels": true, "spacing": 10, "stack_from_top": false, "strict": false, "stroke": true, "stroke_style": null, "style": {"background": "rgba(249, 249, 249, 1)", "ci_colors": [], "colors": ["#F44336", "#3F51B5", "#009688", "#FFC107", "#FF5722", "#9C27B0", "#03A9F4", "#8BC34A", "#FF9800", "#E91E63", "#2196F3", "#4CAF50", "#FFEB3B", "#673AB7", "#00BCD4", "#CDDC39", "#9E9E9E", "#607D8B"], "font_family": "Consolas, \"Liberation Mono\", Menlo, Courier, monospace", "foreground": "rgba(0, 0, 0, .87)", "foreground_strong": "rgba(0, 0, 0, 1)", "foreground_subtle": "rgba(0, 0, 0, .54)", "guide_stroke_dasharray": "4,4", "label_font_family": "Consolas, \"Liberation Mono\", Menlo, Courier, monospace", "label_font_size": 10, "legend_font_family": "Consolas, \"Liberation Mono\", Menlo, Courier, monospace", "legend_font_size": 14, "major_guide_stroke_dasharray": "6,6", "major_label_font_family": "Consolas, \"Liberation Mono\", Menlo, Courier, monospace", "major_label_font_size": 10, "no_data_font_family": "Consolas, \"Liberation Mono\", Menlo, Courier, monospace", "no_data_font_size": 64, "opacity": ".7", "opacity_hover": ".8", "plot_background": "rgba(255, 255, 255, 1)", "stroke_opacity": ".8", "stroke_opacity_hover": ".9", "title_font_family": "Consolas, \"Liberation Mono\", Menlo, Courier, monospace", "title_font_size": 16, "tooltip_font_family": "Consolas, \"Liberation Mono\", Menlo, Courier, monospace", "tooltip_font_size": 14, "transition": "150ms", "value_background": "rgba(229, 229, 229, 1)", "value_colors": [], "value_font_family": "Consolas, \"Liberation Mono\", Menlo, Courier, monospace", "value_font_size": 16, "value_label_font_family": "Consolas, \"Liberation Mono\", Menlo, Courier, monospace", "value_label_font_size": 10}, "title": "Method of consuming Cannabis in USA (in %)", "tooltip_border_radius": 0, "tooltip_fancy_mode": true, "truncate_label": null, "truncate_legend": null, "width": 800, "x_label_rotation": 0, "x_labels": null, "x_labels_major": null, "x_labels_major_count": null, "x_labels_major_every": null, "x_title": null, "xrange": null, "y_label_rotation": 0, "y_labels": null, "y_labels_major": null, "y_labels_major_count": null, "y_labels_major_every": null, "y_title": null, "zero": 0, "legends": ["Smoke", "Vape", "Edible", "Dabbing", "Ingestible Oil", "Topical", "Tincture"]}</script><script type="text/javascript" xlink:href="https://kozea.github.io/pygal.js/2.0.x/pygal-tooltips.min.js" /></defs><title>Method of consuming Cannabis in USA (in %)</title><g class="graph pie-graph vertical"><rect class="background" height="600" width="800" x="0" y="0" /><g class="plot" transform="translate(159, 46)"><rect class="background" height="534" width="620.4" x="0" y="0" /><g class="series serie-0 color-0"><g class="slices"><g class="slice"><path class="slice reactive tooltip-trigger" d="M310.200000 26.700000 A240.300000 240.300000 0 1 1 125.527788 420.753907 L310.200000 267.000000 A0.000000 0.000000 0 1 0 310.200000 267.000000 z" /><desc class="value">63.95</desc><desc class="x centered">418.9951940266032</desc><desc class="y centered">317.9865497627929</desc></g></g></g><g class="series serie-1 color-1"><g class="slices"><g class="slice"><path class="slice reactive tooltip-trigger" d="M125.527788 420.753907 A240.300000 240.300000 0 0 1 73.878117 223.456255 L310.200000 267.000000 A0.000000 0.000000 0 0 0 310.200000 267.000000 z" /><desc class="value">13.95</desc><desc class="x centered">193.96683142352055</desc><desc class="y centered">297.42816167092116</desc></g></g></g><g class="series serie-2 color-2"><g class="slices"><g class="slice"><path class="slice reactive tooltip-trigger" d="M73.878117 223.456255 A240.300000 240.300000 0 0 1 163.276601 76.848469 L310.200000 267.000000 A0.000000 0.000000 0 0 0 310.200000 267.000000 z" /><desc class="value">11.63</desc><desc class="x centered">207.61747560283516</desc><desc class="y centered">204.44723676523088</desc></g></g></g><g class="series serie-3 color-3"><g class="slices"><g class="slice"><path class="slice reactive tooltip-trigger" d="M163.276601 76.848469 A240.300000 240.300000 0 0 1 208.158547 49.441658 L310.200000 267.000000 A0.000000 0.000000 0 0 0 310.200000 267.000000 z" /><desc class="value">3.49</desc><desc class="x centered">247.5827946158854</desc><desc class="y centered">164.45679890951516</desc></g></g></g><g class="series serie-4 color-4"><g class="slices"><g class="slice"><path class="slice reactive tooltip-trigger" d="M208.158547 49.441658 A240.300000 240.300000 0 0 1 310.200000 26.700000 L310.200000 267.000000 A0.000000 0.000000 0 0 0 310.200000 267.000000 z" /><desc class="value">6.98</desc><desc class="x centered">284.06376908329037</desc><desc class="y centered">149.7271560272011</desc></g></g></g><g class="series serie-5 color-5"><g class="slices"><g class="slice"><desc class="value">0</desc><desc class="x centered">310.20000000000005</desc><desc class="y centered">146.85</desc></g></g></g><g class="series serie-6 color-6"><g class="slices"><g class="slice"><desc class="value">0</desc><desc class="x centered">310.20000000000005</desc><desc class="y centered">146.85</desc></g></g></g></g><g class="titles"><text class="title plot_title" x="400.0" y="26">Method of consuming Cannabis in USA (in %)</text></g><g class="plot overlay" transform="translate(159, 46)"><g class="series serie-0 color-0" /><g class="series serie-1 color-1" /><g class="series serie-2 color-2" /><g class="series serie-3 color-3" /><g class="series serie-4 color-4" /><g class="series serie-5 color-5" /><g class="series serie-6 color-6" /></g><g class="plot text-overlay" transform="translate(159, 46)"><g class="series serie-0 color-0" /><g class="series serie-1 color-1" /><g class="series serie-2 color-2" /><g class="series serie-3 color-3" /><g class="series serie-4 color-4" /><g class="series serie-5 color-5" /><g class="series serie-6 color-6" /></g><g class="plot tooltip-overlay" transform="translate(159, 46)"><g class="tooltip" style="opacity: 0" transform="translate(0 0)"><rect class="tooltip-box" height="0" rx="0" ry="0" width="0" /><g class="text" /></g></g><g class="legends" transform="translate(10, 56)"><g class="legend reactive activate-serie" id="activate-serie-0"><rect class="color-0 reactive" height="12" width="12" x="0.0" y="1.0" /><text x="17.0" y="11.2">Smoke</text></g><g class="legend reactive activate-serie" id="activate-serie-1"><rect class="color-1 reactive" height="12" width="12" x="0.0" y="22.0" /><text x="17.0" y="32.2">Vape</text></g><g class="legend reactive activate-serie" id="activate-serie-2"><rect class="color-2 reactive" height="12" width="12" x="0.0" y="43.0" /><text x="17.0" y="53.2">Edible</text></g><g class="legend reactive activate-serie" id="activate-serie-3"><rect class="color-3 reactive" height="12" width="12" x="0.0" y="64.0" /><text x="17.0" y="74.2">Dabbing</text></g><g class="legend reactive activate-serie" id="activate-serie-4"><rect class="color-4 reactive" height="12" width="12" x="0.0" y="85.0" /><text x="17.0" y="95.2">Ingestible Oil</text></g><g class="legend reactive activate-serie" id="activate-serie-5"><rect class="color-5 reactive" height="12" width="12" x="0.0" y="106.0" /><text x="17.0" y="116.2">Topical</text></g><g class="legend reactive activate-serie" id="activate-serie-6"><rect class="color-6 reactive" height="12" width="12" x="0.0" y="127.0" /><text x="17.0" y="137.2">Tincture</text></g></g><g class="legends" transform="translate(790, 56)" /></g></svg>