<?xml version='1.0' encoding='utf-8'?>
<svg xmlns:xlink="http://www.w3.org/1999/xlink" class="pygal-chart" id="chart-c32d786e-a715-44e8-8b6f-e163eb32ffa9" viewBox="0 0 800 600" xmlns="http://www.w3.org/2000/svg"><!--Generated with pygal 2.4.0 (etree) ©Kozea 2012-2016 on 2017-08-25--><!--http://pygal.org--><!--http://github.com/Kozea/pygal--><defs><style type="text/css">#chart-c32d786e-a715-44e8-8b6f-e163eb32ffa9{-webkit-user-select:none;-webkit-font-smoothing:antialiased;font-family:Consolas,"Liberation Mono",Menlo,Courier,monospace}#chart-c32d786e-a715-44e8-8b6f-e163eb32ffa9 .title{font-family:Consolas,"Liberation Mono",Menlo,Courier,monospace;font-size:16px}#chart-c32d786e-a715-44e8-8b6f-e163eb32ffa9 .legends .legend text{font-family:Consolas,"Liberation Mono",Menlo,Courier,monospace;font-size:14px}#chart-c32d786e-a715-44e8-8b6f-e163eb32ffa9 .axis text{font-family:Consolas,"Liberation Mono",Menlo,Courier,monospace;font-size:10px}#chart-c32d786e-a715-44e8-8b6f-e163eb32ffa9 .axis text.major{font-family:Consolas,"Liberation Mono",Menlo,Courier,monospace;font-size:10px}#chart-c32d786e-a715-44e8-8b6f-e163eb32ffa9 .text-overlay text.value{font-family:Consolas,"Liberation Mono",Menlo,Courier,monospace;font-size:16px}#chart-c32d786e-a715-44e8-8b6f-e163eb32ffa9 .text-overlay text.label{font-family:Consolas,"Liberation Mono",Menlo,Courier,monospace;font-size:10px}#chart-c32d786e-a715-44e8-8b6f-e163eb32ffa9 .tooltip{font-family:Consolas,"Liberation Mono",Menlo,Courier,monospace;font-size:14px}#chart-c32d786e-a715-44e8-8b6f-e163eb32ffa9 text.no_data{font-family:Consolas,"Liberation Mono",Menlo,Courier,monospace;font-size:64px}
#chart-c32d786e-a715-44e8-8b6f-e163eb32ffa9{background-color:rgba(249,249,249,1)}#chart-c32d786e-a715-44e8-8b6f-e163eb32ffa9 path,#chart-c32d786e-a715-44e8-8b6f-e163eb32ffa9 line,#chart-c32d786e-a715-44e8-8b6f-e163eb32ffa9 rect,#chart-c32d786e-a715-44e8-8b6f-e163eb32ffa9 circle{-webkit-transition:150ms;-moz-transition:150ms;transition:150ms}#chart-c32d786e-a715-44e8-8b6f-e163eb32ffa9 .graph &gt; .background{fill:rgba(249,249,249,1)}#chart-c32d786e-a715-44e8-8b6f-e163eb32ffa9 .plot &gt; .background{fill:rgba(255,255,255,1)}#chart-c32d786e-a715-44e8-8b6f-e163eb32ffa9 .graph{fill:rgba(0,0,0,.87)}#chart-c32d786e-a715-44e8-8b6f-e163eb32ffa9 text.no_data{fill:rgba(0,0,0,1)}#chart-c32d786e-a715-44e8-8b6f-e163eb32ffa9 .title{fill:rgba(0,0,0,1)}#chart-c32d786e-a715-44e8-8b6f-e163eb32ffa9 .legends .legend text{fill:rgba(0,0,0,.87)}#chart-c32d786e-a715-44e8-8b6f-e163eb32ffa9 .legends .legend:hover text{fill:rgba(0,0,0,1)}#chart-c32d786e-a715-44e8-8b6f-e163eb32ffa9 .axis .line{stroke:rgba(0,0,0,1)}#chart-c32d786e-a715-44e8-8b6f-e163eb32ffa9 .axis .guide.line{stroke:rgba(0,0,0,.54)}#chart-c32d786e-a715-44e8-8b6f-e163eb32ffa9 .axis .major.line{stroke:rgba(0,0,0,.87)}#chart-c32d786e-a715-44e8-8b6f-e163eb32ffa9 .axis text.major{fill:rgba(0,0,0,1)}#chart-c32d786e-a715-44e8-8b6f-e163eb32ffa9 .axis.y .guides:hover .guide.line,#chart-c32d786e-a715-44e8-8b6f-e163eb32ffa9 .line-graph .axis.x .guides:hover .guide.line,#chart-c32d786e-a715-44e8-8b6f-e163eb32ffa9 .stackedline-graph .axis.x .guides:hover .guide.line,#chart-c32d786e-a715-44e8-8b6f-e163eb32ffa9 .xy-graph .axis.x .guides:hover .guide.line{stroke:rgba(0,0,0,1)}#chart-c32d786e-a715-44e8-8b6f-e163eb32ffa9 .axis .guides:hover text{fill:rgba(0,0,0,1)}#chart-c32d786e-a715-44e8-8b6f-e163eb32ffa9 .reactive{fill-opacity:.7;stroke-opacity:.8}#chart-c32d786e-a715-44e8-8b6f-e163eb32ffa9 .ci{stroke:rgba(0,0,0,.87)}#chart-c32d786e-a715-44e8-8b6f-e163eb32ffa9 .reactive.active,#chart-c32d786e-a715-44e8-8b6f-e163eb32ffa9 .active .reactive{fill-opacity:.8;stroke-opacity:.9;stroke-width:4}#chart-c32d786e-a715-44e8-8b6f-e163eb32ffa9 .ci .reactive.active{stroke-width:1.5}#chart-c32d786e-a715-44e8-8b6f-e163eb32ffa9 .series text{fill:rgba(0,0,0,1)}#chart-c32d786e-a715-44e8-8b6f-e163eb32ffa9 .tooltip rect{fill:rgba(255,255,255,1);stroke:rgba(0,0,0,1);-webkit-transition:opacity 150ms;-moz-transition:opacity 150ms;transition:opacity 150ms}#chart-c32d786e-a715-44e8-8b6f-e163eb32ffa9 .tooltip .label{fill:rgba(0,0,0,.87)}#chart-c32d786e-a715-44e8-8b6f-e163eb32ffa9 .tooltip .label{fill:rgba(0,0,0,.87)}#chart-c32d786e-a715-44e8-8b6f-e163eb32ffa9 .tooltip .legend{font-size:.8em;fill:rgba(0,0,0,.54)}#chart-c32d786e-a715-44e8-8b6f-e163eb32ffa9 .tooltip .x_label{font-size:.6em;fill:rgba(0,0,0,1)}#chart-c32d786e-a715-44e8-8b6f-e163eb32ffa9 .tooltip .xlink{font-size:.5em;text-decoration:underline}#chart-c32d786e-a715-44e8-8b6f-e163eb32ffa9 .tooltip .value{font-size:1.5em}#chart-c32d786e-a715-44e8-8b6f-e163eb32ffa9 .bound{font-size:.5em}#chart-c32d786e-a715-44e8-8b6f-e163eb32ffa9 .max-value{font-size:.75em;fill:rgba(0,0,0,.54)}#chart-c32d786e-a715-44e8-8b6f-e163eb32ffa9 .map-element{fill:rgba(255,255,255,1);stroke:rgba(0,0,0,.54) !important}#chart-c32d786e-a715-44e8-8b6f-e163eb32ffa9 .map-element .reactive{fill-opacity:inherit;stroke-opacity:inherit}#chart-c32d786e-a715-44e8-8b6f-e163eb32ffa9 .color-0,#chart-c32d786e-a715-44e8-8b6f-e163eb32ffa9 .color-0 a:visited{stroke:#F44336;fill:#F44336}#chart-c32d786e-a715-44e8-8b6f-e163eb32ffa9 .color-1,#chart-c32d786e-a715-44e8-8b6f-e163eb32ffa9 .color-1 a:visited{stroke:#3F51B5;fill:#3F51B5}#chart-c32d786e-a715-44e8-8b6f-e163eb32ffa9 .color-2,#chart-c32d786e-a715-44e8-8b6f-e163eb32ffa9 .color-2 a:visited{stroke:#009688;fill:#009688}#chart-c32d786e-a715-44e8-8b6f-e163eb32ffa9 .text-overlay .color-0 text{fill:black}#chart-c32d786e-a715-44e8-8b6f-e163eb32ffa9 .text-overlay .color-1 text{fill:black}#chart-c32d786e-a715-44e8-8b6f-e163eb32ffa9 .text-overlay .color-2 text{fill:black}
#chart-c32d786e-a715-44e8-8b6f-e163eb32ffa9 text.no_data{text-anchor:middle}#chart-c32d786e-a715-44e8-8b6f-e163eb32ffa9 .guide.line{fill:none}#chart-c32d786e-a715-44e8-8b6f-e163eb32ffa9 .centered{text-anchor:middle}#chart-c32d786e-a715-44e8-8b6f-e163eb32ffa9 .title{text-anchor:middle}#chart-c32d786e-a715-44e8-8b6f-e163eb32ffa9 .legends .legend text{fill-opacity:1}#chart-c32d786e-a715-44e8-8b6f-e163eb32ffa9 .axis.x text{text-anchor:middle}#chart-c32d786e-a715-44e8-8b6f-e163eb32ffa9 .axis.x:not(.web) text[transform]{text-anchor:start}#chart-c32d786e-a715-44e8-8b6f-e163eb32ffa9 .axis.x:not(.web) text[transform].backwards{text-anchor:end}#chart-c32d786e-a715-44e8-8b6f-e163eb32ffa9 .axis.y text{text-anchor:end}#chart-c32d786e-a715-44e8-8b6f-e163eb32ffa9 .axis.y text[transform].backwards{text-anchor:start}#chart-c32d786e-a715-44e8-8b6f-e163eb32ffa9 .axis.y2 text{text-anchor:start}#chart-c32d786e-a715-44e8-8b6f-e163eb32ffa9 .axis.y2 text[transform].backwards{text-anchor:end}#chart-c32d786e-a715-44e8-8b6f-e163eb32ffa9 .axis .guide.line{stroke-dasharray:4,4}#chart-c32d786e-a715-44e8-8b6f-e163eb32ffa9 .axis .major.guide.line{stroke-dasharray:6,6}#chart-c32d786e-a715-44e8-8b6f-e163eb32ffa9 .horizontal .axis.y .guide.line,#chart-c32d786e-a715-44e8-8b6f-e163eb32ffa9 .horizontal .axis.y2 .guide.line,#chart-c32d786e-a715-44e8-8b6f-e163eb32ffa9 .vertical .axis.x .guide.line{opacity:0}#chart-c32d786e-a715-44e8-8b6f-e163eb32ffa9 .horizontal .axis.always_show .guide.line,#chart-c32d786e-a715-44e8-8b6f-e163eb32ffa9 .vertical .axis.always_show .guide.line{opacity:1 !important}#chart-c32d786e-a715-44e8-8b6f-e163eb32ffa9 .axis.y .guides:hover .guide.line,#chart-c32d786e-a715-44e8-8b6f-e163eb32ffa9 .axis.y2 .guides:hover .guide.line,#chart-c32d786e-a715-44e8-8b6f-e163eb32ffa9 .axis.x .guides:hover .guide.line{opacity:1}#chart-c32d786e-a715-44e8-8b6f-e163eb32ffa9 .axis .guides:hover text{opacity:1}#chart-c32d786e-a715-44e8-8b6f-e163eb32ffa9 .nofill{fill:none}#chart-c32d786e-a715-44e8-8b6f-e163eb32ffa9 .subtle-fill{fill-opacity:.2}#chart-c32d786e-a715-44e8-8b6f-e163eb32ffa9 .dot{stroke-width:1px;fill-opacity:1}#chart-c32d786e-a715-44e8-8b6f-e163eb32ffa9 .dot.active{stroke-width:5px}#chart-c32d786e-a715-44e8-8b6f-e163eb32ffa9 .dot.negative{fill:transparent}#chart-c32d786e-a715-44e8-8b6f-e163eb32ffa9 text,#chart-c32d786e-a715-44e8-8b6f-e163eb32ffa9 tspan{stroke:none !important}#chart-c32d786e-a715-44e8-8b6f-e163eb32ffa9 .series text.active{opacity:1}#chart-c32d786e-a715-44e8-8b6f-e163eb32ffa9 .tooltip rect{fill-opacity:.95;stroke-width:.5}#chart-c32d786e-a715-44e8-8b6f-e163eb32ffa9 .tooltip text{fill-opacity:1}#chart-c32d786e-a715-44e8-8b6f-e163eb32ffa9 .showable{visibility:hidden}#chart-c32d786e-a715-44e8-8b6f-e163eb32ffa9 .showable.shown{visibility:visible}#chart-c32d786e-a715-44e8-8b6f-e163eb32ffa9 .gauge-background{fill:rgba(229,229,229,1);stroke:none}#chart-c32d786e-a715-44e8-8b6f-e163eb32ffa9 .bg-lines{stroke:rgba(249,249,249,1);stroke-width:2px}</style><script type="text/javascript">window.pygal = window.pygal || {};window.pygal.config = window.pygal.config || {};window.pygal.config['c32d786e-a715-44e8-8b6f-e163eb32ffa9'] = {"allow_interruptions": false, "box_mode": "extremes", "classes": ["pygal-chart"], "css": ["file://style.css", "file://graph.css"], "defs": [], "disable_xml_declaration": false, "dots_size": 2.5, "dynamic_print_values": false, "explicit_size": false, "fill": false, "force_uri_protocol": "https", "formatter": null, "half_pie": false, "height": 600, "include_x_axis": false, "inner_radius": 0, "interpolate": null, "interpolation_parameters": {}, "interpolation_precision": 250, "inverse_y_axis": false, "js": ["//kozea.github.io/pygal.js/2.0.x/pygal-tooltips.min.js"], "legend_at_bottom": false, "legend_at_bottom_columns": null, "legend_box_size": 12, "logarithmic": false, "margin": 20, "margin_bottom": null, "margin_left": null, "margin_right": null, "margin_top": null, "max_scale": 16, "min_scale": 4, "missing_value_fill_truncation": "x", "no_data_text": "No data", "no_prefix": false, "order_min": null, "pretty_print": false, "print_labels": false, "print_values": false, "print_values_position": "center", "print_zeroes": true, "range": null, "rounded_bars": null, "secondary_range": null, "show_dots": true, "show_legend": true, "show_minor_x_labels": true, "show_minor_y_labels": true, "show_only_major_dots": false, "show_x_guides": false, "show_x_labels": true, "show_y_guides": true, "show_y_labels": true, "spacing": 10, "stack_from_top": false, "strict": false, "stroke": true, "stroke_style": null, "style": {"background": "rgba(249, 249, 249, 1)", "ci_colors": [], "colors": ["#F44336", "#3F51B5", "#009688", "#FFC107", "#FF5722", "#9C27B0", "#03A9F4", "#8BC34A", "#FF9800", "#E91E63", "#2196F3", "#4CAF50", "#FFEB3B", "#673AB7", "#00BCD4", "#CDDC39", "#9E9E9E", "#607D8B"], "font_family": "Consolas, \"Liberation Mono\", Menlo, Courier, monospace", "foreground": "rgba(0, 0, 0, .87)", "foreground_strong": "rgba(0, 0, 0, 1)", "foreground_subtle": "rgba(0, 0, 0, .54)", "guide_stroke_dasharray": "4,4", "label_font_family": "Consolas, \"Liberation Mono\", Menlo, Courier, monospace", "label_font_size": 10, "legend_font_family": "Consolas, \"Liberation Mono\", Menlo, Courier, monospace", "legend_font_size": 14, "major_guide_stroke_dasharray": "6,6", "major_label_font_family": "Consolas, \"Liberation Mono\", Menlo, Courier, monospace", "major_label_font_size": 10, "no_data_font_family": "Consolas, \"Liberation Mono\", Menlo, Courier, monospace", "no_data_font_size": 64, "opacity": ".7", "opacity_hover": ".8", "plot_background": "rgba(255, 255, 255, 1)", "stroke_opacity": ".8", "stroke_opacity_hover": ".9", "title_font_family": "Consolas, \"Liberation Mono\", Menlo, Courier, monospace", "title_font_size": 16, "tooltip_font_family": "Consolas, \"Liberation Mono\", Menlo, Courier, monospace", "tooltip_font_size": 14, "transition": "150ms", "value_background": "rgba(229, 229, 229, 1)", "value_colors": [], "value_font_family": "Consolas, \"Liberation Mono\", Menlo, Courier, monospace", "value_font_size": 16, "value_label_font_family": "Consolas, \"Liberation Mono\", Menlo, Courier, monospace", "value_label_font_size": 10}, "title": "Cannabis Legalization in USA (in %)", "tooltip_border_radius": 0, "tooltip_fancy_mode": true, "truncate_label": null, "truncate_legend": null, "width": 800, "x_label_rotation": 0, "x_labels": null, "x_labels_major": null, "x_labels_major_count": null, "x_labels_major_every": null, "x_title": null, "xrange": null, "y_label_rotation": 0, "y_labels": null, "y_labels_major": null, "y_labels_major_count": null, "y_labels_major_every": null, "y_title": null, "zero": 0, "legends": ["Full", "Medical", "Against"]}</script><script type="text/javascript" xlink:href="https://kozea.github.io/pygal.js/2.0.x/pygal-tooltips.min.js" /></defs><title>Cannabis Legalization in USA (in %)</title><g class="graph pie-graph vertical"><rect class="background" height="600" width="800" x="0" y="0" /><g class="plot" transform="translate(100, 46)"><rect class="background" height="534" width="679.2" x="0" y="0" /><g class="series serie-0 color-0"><g class="slices"><g class="slice"><path class="slice reactive tooltip-trigger" d="M339.600000 26.700000 A240.300000 240.300000 0 1 1 251.139670 490.425290 L339.600000 267.000000 A0.000000 0.000000 0 1 0 339.600000 267.000000 z" /><desc class="value">56</desc><desc class="x centered">457.62181317505195</desc><desc class="y centered">289.5138649474748</desc></g></g></g><g class="series serie-1 color-1"><g class="slices"><g class="slice"><path class="slice reactive tooltip-trigger" d="M251.139670 490.425290 A240.300000 240.300000 0 0 1 175.103330 91.828839 L339.600000 267.000000 A0.000000 0.000000 0 0 0 339.600000 267.000000 z" /><desc class="value">32</desc><desc class="x centered">221.57818682494803</desc><desc class="y centered">289.5138649474747</desc></g></g></g><g class="series serie-2 color-2"><g class="slices"><g class="slice"><path class="slice reactive tooltip-trigger" d="M175.103330 91.828839 A240.300000 240.300000 0 0 1 339.600000 26.700000 L339.600000 267.000000 A0.000000 0.000000 0 0 0 339.600000 267.000000 z" /><desc class="value">12</desc><desc class="x centered">295.369834994936</desc><desc class="y centered">155.2873552205266</desc></g></g></g></g><g class="titles"><text class="title plot_title" x="400.0" y="26">Cannabis Legalization in USA (in %)</text></g><g class="plot overlay" transform="translate(100, 46)"><g class="series serie-0 color-0" /><g class="series serie-1 color-1" /><g class="series serie-2 color-2" /></g><g class="plot text-overlay" transform="translate(100, 46)"><g class="series serie-0 color-0" /><g class="series serie-1 color-1" /><g class="series serie-2 color-2" /></g><g class="plot tooltip-overlay" transform="translate(100, 46)"><g class="tooltip" style="opacity: 0" transform="translate(0 0)"><rect class="tooltip-box" height="0" rx="0" ry="0" width="0" /><g class="text" /></g></g><g class="legends" transform="translate(10, 56)"><g class="legend reactive activate-serie" id="activate-serie-0"><rect class="color-0 reactive" height="12" width="12" x="0.0" y="1.0" /><text x="17.0" y="11.2">Full</text></g><g class="legend reactive activate-serie" id="activate-serie-1"><rect class="color-1 reactive" height="12" width="12" x="0.0" y="22.0" /><text x="17.0" y="32.2">Medical</text></g><g class="legend reactive activate-serie" id="activate-serie-2"><rect class="color-2 reactive" height="12" width="12" x="0.0" y="43.0" /><text x="17.0" y="53.2">Against</text></g></g><g class="legends" transform="translate(790, 56)" /></g></svg>